[
   {
      "settings": null,
      "creator": "system",
      "visibleToDegree": 0,
      "extensionPorts": null,
      "exposedBy": ["all"],
      "name": "General",
      "description": "",
      "visibleTo": [],
      "id": 0,
      "commands": {
         "Answer": {
            "actor": "toggle",
            "data": null,
            "description": "",
            "transitions": null
         },
         "Cancel": {
            "actor": "",
            "data": null,
            "description": "",
            "transitions": null
         },
         "Complete": {
            "actor": "toggle",
            "data": null,
            "description": "",
            "transitions": null
         },
         "Ask": {
            "actor": "",
            "data": null,
            "description": "",
            "transitions": [
               "Answer",
               "Cancel"
            ]
         },
         "Assign": {
            "actor": "",
            "data": null,
            "description": "",
            "transitions": [
               "Complete",
               "Cancel"
            ]
         }
      },
      "canStartWithSay": true,
      "info": null
   },
   {
      "settings": null,
      "creator": "system",
      "visibleToDegree": 0,
      "extensionPorts": null,
      "exposedBy": ["all"],
      "name": "Appointment",
      "description": "",
      "visibleTo": [],
      "id": 1,
      "commands": {
         "Decline": {
            "actor": "owner",
            "data": null,
            "description": "",
            "transitions": null
         },
         "Accept": {
            "actor": "owner",
            "data": null,
            "description": "",
            "transitions": null
         },
         "GetAvailability": {
            "actor": "originator",
            "data": null,
            "description": "",
            "transitions": ["Listing"]
         },
         "Listing": {
            "actor": "owner",
            "data": {"Times": {
               "source": "",
               "type": "[time]",
               "value": null,
               "inputAction": "",
               "desc": ""
            }},
            "description": "",
            "transitions": ["Request"]
         },
         "Request": {
            "actor": "originator",
            "data": {
               "Choose Time": {
                  "source": "Listing",
                  "type": "time",
                  "value": null,
                  "inputAction": "select1",
                  "desc": ""
               },
               "Topic": {
                  "source": "user",
                  "type": "string",
                  "value": null,
                  "inputAction": "",
                  "desc": ""
               }
            },
            "description": "",
            "transitions": [
               "Accept",
               "Decline"
            ]
         }
      },
      "canStartWithSay": false,
      "info": null
   }
]