[
   {
      "command_processors": {},
      "_id": 0,
      "visible_to": [],
      "name": "Converse",
      "command_transitions": {
         "Do": [
            "Done",
            "Cancel"
         ],
         "FYI": [],
         "Tell": [],
         "Ask": [
            "Answer",
            "Cancel"
         ]
      },
      "creator": "system"
   },
   {
      "command_processors": {},
      "_id": 1,
      "visible_to": [],
      "name": "ForSale",
      "command_transitions": {
         "Pay": ["Ship"],
         "Offer": [
            "Accept",
            "Reject",
            "Recall"
         ],
         "Accept": ["Pay"]
      },
      "creator": "system"
   },
   {
      "command_processors": {},
      "_id": 2,
      "visible_to": [],
      "name": "Appointment",
      "command_transitions": {
         "Select": [
            "Accept",
            "Decline"
         ],
         "Request": [
            "Options",
            "Cancel"
         ],
         "Options": [
            "Select",
            "Cancel"
         ]
      },
      "creator": "system"
   }
]