[
   {
      "id": 0,
      "appointments": false,
      "visibleTo": [],
      "description": "",
      "commands": {
         "Do": {
            "transitions": [
               "Done",
               "Cancel"
            ],
            "description": "",
            "data": null
         },
         "Say": {
            "transitions": null,
            "description": "",
            "data": null
         },
         "Answer": {
            "transitions": null,
            "description": "",
            "data": null
         },
         "Cancel": {
            "transitions": null,
            "description": "",
            "data": null
         },
         "Done": {
            "transitions": null,
            "description": "",
            "data": null
         },
         "Ask": {
            "transitions": [
               "Answer",
               "Cancel"
            ],
            "description": "",
            "data": null
         }
      },
      "name": "Converse",
      "canStartWithSay": true,
      "creator": "system",
      "info": null
   },
   {
      "id": 2,
      "appointments": false,
      "visibleTo": [],
      "description": "",
      "commands": {
         "GetAvailability": {
            "transitions": ["Listing"],
            "description": "",
            "data": null
         },
         "Listing": {
            "transitions": ["Request"],
            "description": "",
            "data": {"Times": {
               "inputAction": "",
               "desc": "",
               "source": "",
               "value": null,
               "type": "[time]"
            }}
         },
         "Decline": {
            "transitions": null,
            "description": "",
            "data": null
         },
         "Request": {
            "transitions": [
               "Accept",
               "Decline"
            ],
            "description": "",
            "data": {
               "Choose Time": {
                  "inputAction": "select1",
                  "desc": "",
                  "source": "Listing",
                  "value": null,
                  "type": "time"
               },
               "Topic": {
                  "inputAction": "",
                  "desc": "",
                  "source": "user",
                  "value": null,
                  "type": "string"
               }
            }
         },
         "Accept": {
            "transitions": null,
            "description": "",
            "data": null
         }
      },
      "name": "Appointment",
      "canStartWithSay": false,
      "creator": "system",
      "info": null
   },
   {
      "id": 8,
      "appointments": false,
      "visibleTo": [],
      "description": "Mint condition Honda CBR250 with low miles",
      "commands": {
         "Decline": {
            "transitions": null,
            "description": "Decline the offer",
            "data": null
         },
         "Offer": {
            "transitions": [
               "Accept",
               "Decline"
            ],
            "description": "Make an offer",
            "data": {"Enter Price": {
               "inputAction": "",
               "desc": "",
               "source": "user",
               "value": null,
               "type": "price"
            }}
         },
         "Accept": {
            "transitions": null,
            "description": "Accept the offer",
            "data": null
         }
      },
      "name": "Honda_For_Sale",
      "canStartWithSay": false,
      "creator": "nikhil",
      "info": {
         "model": "CBR250",
         "price": "1675",
         "mileage": "3700",
         "year": "2007"
      }
   },
   {
      "id": 11,
      "appointments": false,
      "visibleTo": [],
      "description": "",
      "commands": {
         "Availability": {
            "transitions": [
               "Answer",
               "Reject"
            ],
            "description": "",
            "data": null
         },
         "Answer": {
            "transitions": null,
            "description": "",
            "data": null
         },
         "Location": {
            "transitions": [
               "Answer",
               "Reject"
            ],
            "description": "",
            "data": null
         },
         "Reject": {
            "transitions": null,
            "description": "",
            "data": null
         },
         "Hostname": {
            "transitions": [
               "Answer",
               "Reject"
            ],
            "description": "",
            "data": null
         }
      },
      "name": "Self",
      "canStartWithSay": false,
      "creator": "system",
      "info": null
   }
]